launchshiny package • launchshiny
…
Find the daily COVID-19 cases within a month for a country

The select_country_month function is used to discover the daily COVID-19 cases of a country in a month. You need to input the country name in a character vector, and a month in an integer vector. The function will also return the statistics in the table format. Besides, only three countries are available, which are Australia,Japan and US. And the range of months is between 1 and 10.

You could find the data via:

library(tibble)
select_country_month(country_select = "Australia", month_select = 5)
#> # A tibble: 31 x 7
#> # Groups:   country [1]
#>    country    year month   day confirmed death recovered
#>    <chr>     <dbl> <dbl> <int>     <int> <int>     <int>
#>  1 Australia  2020     5     1        12     0        33
#>  2 Australia  2020     5     2        21     1        39
#>  3 Australia  2020     5     3        23     1        35
#>  4 Australia  2020     5     4        25     1        38
#>  5 Australia  2020     5     5        28     1        88
#>  6 Australia  2020     5     6        19     0        56
#>  7 Australia  2020     5     7        19     0        47
#>  8 Australia  2020     5     8         5     0        44
#>  9 Australia  2020     5     9        21     0        19
#> 10 Australia  2020     5    10         9     0        26
#> # … with 21 more rows
…
